[
  {
    "name": "SEO - Page Titles",
    "settings": [
      {
        "type": "paragraph",
        "content": "Powered by Plug in SEO Plus"
      },
      {
        "type": "paragraph",
        "content": "Page titles are displayed in the web browser tab and as the blue underlined link text in search engines"
      },
      {
        "type": "paragraph",
        "content": "[Page titles help](https:\/\/help.pluginuseful.com\/hc\/en-us\/articles\/209539509-Page-titles)"
      },
      {
        "type": "text",
        "id": "pluginseo_pageTitleTruncateChars",
        "label": "Maximum length (characters)",
        "default": "999"
      },
      {
        "type": "header",
        "content": "Appender"
      },
      {
        "type": "checkbox",
        "id": "pluginseo_pageTitleEnableAppender",
        "label": "Append to short page titles?",
        "default": true
      },
      {
        "type": "text",
        "id": "pluginseo_pageTitleAppenderTemplate",
        "label": "Append",
        "default": "| %% shop.name %%"
      },
      {
        "type": "text",
        "id": "pluginseo_pageTitleAppenderTargetLength",
        "label": "Target length",
        "default": "70"
      },
      {
        "type": "header",
        "content": "Page Title Templates"
      },
      {
        "type": "checkbox",
        "id": "pluginseo_pageTitleTemplateApplyToAll",
        "label": "Also apply templates to manually entered page titles?",
        "default": true
      },
      {
        "type": "checkbox",
        "id": "pluginseo_pageTitleTruncateEnableForCollections",
        "label": "Apply To Collections",
        "default": true
      },
      {
        "type": "checkbox",
        "id": "pluginseo_pageTitleTruncateEnableForProducts",
        "label": "Apply To Products",
        "default": true
      },
      {
        "type": "checkbox",
        "id": "pluginseo_pageTitleTruncateEnableForPages",
        "label": "Apply To Pages",
        "default": true
      },
      {
        "type": "checkbox",
        "id": "pluginseo_pageTitleTruncateEnableForArticles",
        "label": "Apply To Articles",
        "default": true
      },
      {
        "type": "checkbox",
        "id": "pluginseo_pageTitleTruncateEnableForBlogs",
        "label": "Apply To Blogs",
        "default": true
      },
      {
        "type": "text",
        "id": "pluginseo_pageTitleDefaultTemplate",
        "label": "Default",
        "default": "%% page_title %%",
        "info": "this template will apply to all blank page types below"
      },
      {
        "type": "text",
        "id": "pluginseo_pageTitleIndexTemplate",
        "label": "Homepage"
      },
      {
        "type": "text",
        "id": "pluginseo_pageTitlePageTemplate",
        "label": "Page",
        "default": "%% page_title %%"
      },
      {
        "type": "text",
        "id": "pluginseo_pageTitleSearchTemplate",
        "label": "Search",
        "default": "Shop %% search.terms %% at %% shop.name %%"
      },
      {
        "type": "text",
        "id": "pluginseo_pageTitleProductTemplate",
        "label": "Product",
        "default": "%% product.title %%%% product.selected_variant.title || prepend_not_empty: ' ' %%"
      },
      {
        "type": "text",
        "id": "pluginseo_pageTitleCollectionTemplate",
        "label": "Collection",
        "default": "Shop %% current_tags || join: ', ' || append_not_empty: ' ' %%%% collection.title || escape %% at %% shop.name %%"
      },
      {
        "type": "text",
        "id": "pluginseo_pageTitleCatalogTemplate",
        "label": "Catalog Page",
        "default": "Browse %% collection.products || map: 'collections' || map: 'title' || uniq || take: '5' || join: ', ' || escape || remove: 'Home page, ' || remove: 'home page, '  || remove: 'Home page' || remove: 'Home page'  %% at %% shop.name %%"
      },
      {
        "type": "text",
        "id": "pluginseo_pageTitleBlogTemplate",
        "label": "Blog",
        "default": "%% shop.name %% %% blog.title %%%% blog.all_tags || take: '5' || join: ', ' || prepend_not_empty: ' blog: ' || append_not_empty: ' and more' %%"
      },
      {
        "type": "text",
        "id": "pluginseo_pageTitleArticleTemplate",
        "label": "Article",
        "default": "%% article.title %%%% article.tags || take: '3' || join: ', ' || prepend_not_empty: ' | ' || append_not_empty: ' and more' %% | %% shop.name %% %% blog.title %% blog"
      },
      {
        "type": "text",
        "id": "pluginseo_pageTitle404Template",
        "label": "404",
        "default": "404: Page Not Found - %% shop.name %%"
      }
    ]
  },
  {
    "name": "SEO - Meta Descriptions",
    "settings": [
      {
        "type": "paragraph",
        "content": "Powered by Plug in SEO Plus"
      },
      {
        "type": "paragraph",
        "content": "Meta descriptions are displayed as the paragraph text in search engines"
      },
      {
        "type": "paragraph",
        "content": "[Meta descriptions help](https:\/\/help.pluginuseful.com\/hc\/en-us\/articles\/209542049-Meta-descriptions)"
      },
      {
        "type": "text",
        "id": "pluginseo_metaDescriptionTruncateChars",
        "label": "Maximum length (characters)",
        "default": "170"
      },
      {
        "type": "header",
        "content": "Meta Description Templates"
      },
      {
        "type": "checkbox",
        "id": "pluginseo_metaDescriptionTemplateApplyToAll",
        "label": "Also apply templates to manually entered meta descriptions?",
        "default": true
      },
      {
        "type": "checkbox",
        "id": "pluginseo_metaDescriptionTruncateEnableForCollections",
        "label": "Apply To Collections",
        "default": true
      },
      {
        "type": "checkbox",
        "id": "pluginseo_metaDescriptionTruncateEnableForProducts",
        "label": "Apply To Products",
        "default": true
      },
      {
        "type": "checkbox",
        "id": "pluginseo_metaDescriptionTruncateEnableForPages",
        "label": "Apply To Pages",
        "default": true
      },
      {
        "type": "checkbox",
        "id": "pluginseo_metaDescriptionTruncateEnableForArticles",
        "label": "Apply To Articles",
        "default": true
      },
      {
        "type": "checkbox",
        "id": "pluginseo_metaDescriptionTruncateEnableForBlogs",
        "label": "Apply To Blogs",
        "default": true
      },
      {
        "type": "textarea",
        "id": "pluginseo_metaDescriptionDefaultTemplate",
        "label": "Default",
        "default": "%% page_description %%",
        "info": "this template will apply to all blank page types below"
      },
      {
        "type": "textarea",
        "id": "pluginseo_metaDescriptionIndexTemplate",
        "label": "Homepage"
      },
      {
        "type": "textarea",
        "id": "pluginseo_metaDescriptionPageTemplate",
        "label": "Page",
        "default": "%% page.content || strip_newlines || strip_html || escape || append_not_empty: '.' %% Visit %% shop.name %%"
      },
      {
        "type": "textarea",
        "id": "pluginseo_metaDescriptionSearchTemplate",
        "label": "Search",
        "default": "Find %% search.terms || default: 'it' %% here%% search.results || map: 'title' || take: '3' || join: ', ' || prepend_not_empty: ' including ' || append_not_empty: ' and more' %% at %% shop.name %%"
      },
      {
        "type": "textarea",
        "id": "pluginseo_metaDescriptionProductTemplate",
        "label": "Product",
        "default": "%% product.description || strip_newlines || replace: '.,', ',' || strip_html || escape %%"
      },
      {
        "type": "textarea",
        "id": "pluginseo_metaDescriptionCollectionTemplate",
        "label": "Collection",
        "default": "%% collection.all_tags || take: '3' || join: ', ' || prepend_not_empty: 'Shop ' || append_not_empty: ' and more ' %%%% collection.title || escape %% at %% shop.name %% %% collection.description || strip_html || strip_newlines || escape || strip %%"
      },
      {
        "type": "textarea",
        "id": "pluginseo_metaDescriptionCatalogTemplate",
        "label": "Catalog Page",
        "default": "Discover %% collection.products || map: 'title' || uniq || take: '3' || join: ', ' || escape %% and more."
      },
      {
        "type": "textarea",
        "id": "pluginseo_metaDescriptionBlogTemplate",
        "label": "Blog",
        "default": "%% blog.articles || map: 'title' || take: '3' || join: ', ' || prepend_not_empty: 'Read about ' || append_not_empty: ' and more on the '%%%% shop.name %% %% blog.title %% blog."
      },
      {
        "type": "textarea",
        "id": "pluginseo_metaDescriptionArticleTemplate",
        "label": "Article",
        "default": "%% article.excerpt_or_content || strip_newlines || strip_html || escape %%%% article.tags || take: '6' || join: ', ' || prepend_not_empty: ' Read about ' || append_not_empty: ' and more' %% %% article.title %% on the %% shop.name %% %% blog.title %% blog"
      },
      {
        "type": "textarea",
        "id": "pluginseo_metaDescription404Template",
        "label": "404",
        "default": "The page you requested can't be found, please visit %% shop.domain %% instead"
      }
    ]
  },
  {
    "name": "SEO - Structured Data",
    "settings": [
      {
        "type": "paragraph",
        "content": "Powered by Plug in SEO Plus"
      },
      {
        "type": "paragraph",
        "content": "Structured data allows search engines to better understand the content of your pages, enabling your shop to be displayed in more prominent ways"
      },
      {
        "type": "paragraph",
        "content": "[Structured data help](https:\/\/help.pluginuseful.com\/article\/1938-how-do-i-set-up-my-json-ld-structured-data)"
      },
      {
        "type": "image",
        "id": "pluginseo_structuredDataLogo.png",
        "label": "Logo"
      },
      {
        "type": "checkbox",
        "id": "pluginseo_structuredDataDisplayLogo",
        "label": "Include logo?",
        "default": false
      },
      {
        "type": "header",
        "content": "Social Profile Links"
      },
      {
        "type": "textarea",
        "id": "pluginseo_structuredDataSocialProfileLinks",
        "label": "Social profile links - one URL per line"
      },
      {
        "type": "header",
        "content": "Reviews"
      },
      {
        "type": "select",
        "id": "pluginseo_structuredDataReviewApp",
        "label": "Review App",
        "default": "autodetect",
        "options": [
          {
            "value": "autodetect",
            "label": "Auto-Detect"
          },
          {
            "value": "judgeme",
            "label": "Judge.me"
          },
          {
            "value": "loox",
            "label": "Loox"
          },
          {
            "value": "opinew",
            "label": "Opinew"
          },
          {
            "value": "shopify_product_reviews",
            "label": "Shopify Product Reviews"
          },
          {
            "value": "stamped",
            "label": "Stamped.io"
          },
          {
            "value": "rivyo",
            "label": "Rivyo"
          }
        ]
      }
    ]
  },
  {
    "name": "theme_info",
    "theme_name": "Prestige",
    "theme_author": "Maestrooo",
    "theme_version": "4.12.2",
    "theme_documentation_url": "http:\/\/support.maestrooo.com\/",
    "theme_support_url": "https:\/\/support.maestrooo.com\/article\/203-contact-us"
  },
  {
    "name": "Code Inserts",
    "settings": [
      {
        "type": "textarea",
        "id": "header_content_bottom",
        "label": "Header",
        "info": "Code will be inserted right before the closing <\/head> tag. Script tags are not added automatically."
      },
      {
        "type": "textarea",
        "id": "body_content_top",
        "label": "Body top",
        "info": "Code will be inserted right after the opening <body> tag. Script tags are not added automatically."
      }
    ]
  },
  {
    "name": "Localization",
    "settings": [
      {
        "type": "text",
        "id": "localization_country_code",
        "label": "Country Code",
        "info": "The country code of the current store."
      },
      {
        "type": "textarea",
        "id": "localization_links",
        "label": "Country stores",
        "info": "Separate label and url with a | (pipe).\nSeparate entries with a new line."
      }
    ]
  },
  {
    "name": "Categories\/Collections",
    "settings": [
      {
        "type": "range",
        "id": "products-per-page",
        "label": "Products per page",
        "min": 6,
        "max": 30,
        "step": 6,
        "default": 6
      }
    ]
  },
  {
    "name": "Product",
    "settings": [
      {
        "type": "checkbox",
        "id": "enable-klaviyo-notification",
        "label": "Enable Klaviyo Notifications"
      },
      {
        "type": "text",
        "id": "klaviyo-api-key",
        "label": "Klaviyo API key (Site ID)"
      },
      {
        "type": "text",
        "id": "klaviyo-list-id",
        "label": "Klaviyo Subscribe List ID"
      },
      {
        "type": "page",
        "id": "product-sizeguide-page",
        "label": "Sizeguide page",
        "info": "Product sizeguide will be extracted from the selected page."
      },
      {
        "type": "header",
        "content": "Delivery time"
      },
      {
        "type": "checkbox",
        "id": "enable_delivery_date",
        "label": "Show delivery time",
        "default": true
      },
      {
        "type": "text",
        "id": "delivery_prefix_label",
        "label": "Prefix text",
        "default": "We will deliver by "
      },
      {
        "type": "text",
        "id": "time_axis",
        "label": "Time axis",
        "default": "16"
      },
      {
        "type": "text",
        "id": "time_axis_sat",
        "label": "Time axis (Saturday)",
        "default": "10"
      },
      {
        "type": "text",
        "id": "delivery_in_time",
        "label": "Delivery days before time",
        "default": "1"
      },
      {
        "type": "text",
        "id": "delivery_out_time",
        "label": "Delivery days after time",
        "default": "2"
      },
      {
        "type": "header",
        "content": "Translations"
      },
      {
        "type": "text",
        "id": "trans_days",
        "label": "Days"
      },
      {
        "type": "text",
        "id": "trans_months",
        "label": "Months"
      }
    ]
  },
  {
    "name": "Cart",
    "settings": [
      {
        "type": "range",
        "id": "cart-free-shipping-items",
        "label": "Min. products for free shipping",
        "default": 2,
        "min": 0,
        "max": 10
      },
      {
        "type": "page",
        "id": "cart-agree-page",
        "label": "Terms and conditions accept page"
      },
      {
        "type": "link_list",
        "id": "cart_empty_nav",
        "label": "Empty cart navigation"
      }
    ]
  },
  {
    "name": "Social media",
    "settings": [
      {
        "type": "header",
        "content": "Accounts"
      },
      {
        "type": "text",
        "id": "social_facebook",
        "info": "https:\/\/www.facebook.com\/shopify",
        "label": "Facebook"
      },
      {
        "type": "text",
        "id": "social_twitter",
        "info": "https:\/\/twitter.com\/shopify",
        "label": "Twitter"
      },
      {
        "type": "text",
        "id": "social_pinterest",
        "info": "https:\/\/www.pinterest.com\/shopify",
        "label": "Pinterest"
      },
      {
        "type": "text",
        "id": "social_instagram",
        "info": "https:\/\/instagram.com\/shopify",
        "label": "Instagram"
      },
      {
        "type": "text",
        "id": "social_vimeo",
        "info": "https:\/\/vimeo.com\/shopify",
        "label": "Vimeo"
      },
      {
        "type": "text",
        "id": "social_tumblr",
        "info": "https:\/\/shopify.tumblr.com",
        "label": "Tumblr"
      },
      {
        "type": "text",
        "id": "social_youtube",
        "info": "https:\/\/www.youtube.com\/user\/shopify",
        "label": "YouTube"
      },
      {
        "type": "text",
        "id": "social_tiktok",
        "info": "https:\/\/www.tiktok.com\/shopify",
        "label": "TikTok"
      },
      {
        "type": "text",
        "id": "social_linkedin",
        "info": "https:\/\/linkedin.com\/in\/shopify",
        "label": "LinkedIn"
      },
      {
        "type": "text",
        "id": "social_snapchat",
        "info": "https:\/\/snapchat.com\/add\/shopify",
        "label": "Snapchat"
      },
      {
        "type": "text",
        "id": "social_fancy",
        "info": "https:\/\/fancy.com\/Shopify",
        "label": "Fancy"
      }
    ]
  }
]